waveform/test_ahb_example.vcd
$date
	Mon Sep  6 22:34:28 2021

$end
$version
	fstWriter
$end
$timescale
	1ps
$end
$scope module TOP $end
$var wire 1 ! clk $end
$var wire 1 " rst $end
$var wire 1 # HSEL $end
$var wire 8 $ HADDR $end
$var wire 2 % HTRANS $end
$var wire 3 & HSIZE $end
$var wire 1 ' HWRITE $end
$var wire 32 ( HWDATA $end
$var wire 1 ) HREADY $end
$var wire 1 * HREADYOUT $end
$var wire 32 + HRDATA $end
$var wire 1 , HRESP $end
$scope module AhbSram $end
$var wire 1 ! clk $end
$var wire 1 " rst $end
$var wire 1 # HSEL $end
$var wire 8 $ HADDR $end
$var wire 2 % HTRANS $end
$var wire 3 & HSIZE $end
$var wire 1 ' HWRITE $end
$var wire 32 ( HWDATA $end
$var wire 1 ) HREADY $end
$var wire 1 * HREADYOUT $end
$var wire 32 + HRDATA $end
$var wire 1 , HRESP $end
$var logic 1 - write_en $end
$var logic 6 . read_addr $end
$var logic 6 / write_addr $end
$var logic 32 0 mem(0) $end
$var logic 32 1 mem(1) $end
$var logic 32 2 mem(2) $end
$var logic 32 3 mem(3) $end
$var logic 32 4 mem(4) $end
$var logic 32 5 mem(5) $end
$var logic 32 6 mem(6) $end
$var logic 32 7 mem(7) $end
$var logic 32 8 mem(8) $end
$var logic 32 9 mem(9) $end
$var logic 32 : mem(10) $end
$var logic 32 ; mem(11) $end
$var logic 32 < mem(12) $end
$var logic 32 = mem(13) $end
$var logic 32 > mem(14) $end
$var logic 32 ? mem(15) $end
$var logic 32 @ mem(16) $end
$var logic 32 A mem(17) $end
$var logic 32 B mem(18) $end
$var logic 32 C mem(19) $end
$var logic 32 D mem(20) $end
$var logic 32 E mem(21) $end
$var logic 32 F mem(22) $end
$var logic 32 G mem(23) $end
$var logic 32 H mem(24) $end
$var logic 32 I mem(25) $end
$var logic 32 J mem(26) $end
$var logic 32 K mem(27) $end
$var logic 32 L mem(28) $end
$var logic 32 M mem(29) $end
$var logic 32 N mem(30) $end
$var logic 32 O mem(31) $end
$var logic 32 P mem(32) $end
$var logic 32 Q mem(33) $end
$var logic 32 R mem(34) $end
$var logic 32 S mem(35) $end
$var logic 32 T mem(36) $end
$var logic 32 U mem(37) $end
$var logic 32 V mem(38) $end
$var logic 32 W mem(39) $end
$var logic 32 X mem(40) $end
$var logic 32 Y mem(41) $end
$var logic 32 Z mem(42) $end
$var logic 32 [ mem(43) $end
$var logic 32 \ mem(44) $end
$var logic 32 ] mem(45) $end
$var logic 32 ^ mem(46) $end
$var logic 32 _ mem(47) $end
$var logic 32 ` mem(48) $end
$var logic 32 a mem(49) $end
$var logic 32 b mem(50) $end
$var logic 32 c mem(51) $end
$var logic 32 d mem(52) $end
$var logic 32 e mem(53) $end
$var logic 32 f mem(54) $end
$var logic 32 g mem(55) $end
$var logic 32 h mem(56) $end
$var logic 32 i mem(57) $end
$var logic 32 j mem(58) $end
$var logic 32 k mem(59) $end
$var logic 32 l mem(60) $end
$var logic 32 m mem(61) $end
$var logic 32 n mem(62) $end
$var logic 32 o mem(63) $end
$var logic 32 p write_bit_mask $end
$var logic 32 ( write_data $end
$scope module u_ahb_pa4rse $end
$var parameter 32 q BW_ADDR $end
$var parameter 32 r BW_DATA $end
$var wire 1 ! clk $end
$var wire 1 " rst $end
$var wire 1 # HSEL $end
$var wire 8 $ HADDR $end
$var wire 2 % HTRANS $end
$var wire 3 & HSIZE $end
$var wire 1 ' HWRITE $end
$var wire 32 ( HWDATA $end
$var wire 1 ) HREADY $end
$var wire 1 * HREADYOUT $end
$var wire 32 + HRDATA $end
$var wire 1 , HRESP $end
$var wire 1 s read_en $end
$var wire 6 . read_addr $end
$var wire 32 t read_bit_mask $end
$var wire 32 u read_data $end
$var wire 1 - write_en $end
$var wire 6 / write_addr $end
$var wire 32 p write_bit_mask $end
$var wire 32 ( write_data $end
$var logic 1 v has_trans $end
$var logic 1 w write_en_early1 $end
$var logic 2 x HADDR_lo $end
$var logic 3 y HSIZE_raw_mask $end
$var logic 4 z read_byte_mask $end
$var logic 4 { write_byte_mask $end
$scope module unnamedblk2 $end
$var int 32 | i $end
$scope module unnamedblk3 $end
$var int 32 } j $end
$upscope $end
$upscope $end
$upscope $end
$upscope $end
$upscope $end
$enddefinitions $end
#0
$dumpvars
b00000000000000000000000000000100 }
b00000000000000000000000000000010 |
b0000 {
b0001 z
b000 y
b00 x
0w
0v
b00000000000000000000000000000000 u
b00000000000000000000000011111111 t
0s
b00000000000000000000000000100000 r
b00000000000000000000000000001000 q
b00000000000000000000000000000000 p
b00000000000000000000000000000000 o
b00000000000000000000000000000000 n
b00000000000000000000000000000000 m
b00000000000000000000000000000000 l
b00000000000000000000000000000000 k
b00000000000000000000000000000000 j
b00000000000000000000000000000000 i
b00000000000000000000000000000000 h
b00000000000000000000000000000000 g
b00000000000000000000000000000000 f
b00000000000000000000000000000000 e
b00000000000000000000000000000000 d
b00000000000000000000000000000000 c
b00000000000000000000000000000000 b
b00000000000000000000000000000000 a
b00000000000000000000000000000000 `
b00000000000000000000000000000000 _
b00000000000000000000000000000000 ^
b00000000000000000000000000000000 ]
b00000000000000000000000000000000 \
b00000000000000000000000000000000 [
b00000000000000000000000000000000 Z
b00000000000000000000000000000000 Y
b00000000000000000000000000000000 X
b00000000000000000000000000000000 W
b00000000000000000000000000000000 V
b00000000000000000000000000000000 U
b00000000000000000000000000000000 T
b00000000000000000000000000000000 S
b00000000000000000000000000000000 R
b00000000000000000000000000000000 Q
b00000000000000000000000000000000 P
b00000000000000000000000000000000 O
b00000000000000000000000000000000 N
b00000000000000000000000000000000 M
b00000000000000000000000000000000 L
b00000000000000000000000000000000 K
b00000000000000000000000000000000 J
b00000000000000000000000000000000 I
b00000000000000000000000000000000 H
b00000000000000000000000000000000 G
b00000000000000000000000000000000 F
b00000000000000000000000000000000 E
b00000000000000000000000000000000 D
b00000000000000000000000000000000 C
b00000000000000000000000000000000 B
b00000000000000000000000000000000 A
b00000000000000000000000000000000 @
b00000000000000000000000000000000 ?
b00000000000000000000000000000000 >
b00000000000000000000000000000000 =
b00000000000000000000000000000000 <
b00000000000000000000000000000000 ;
b00000000000000000000000000000000 :
b00000000000000000000000000000000 9
b00000000000000000000000000000000 8
b00000000000000000000000000000000 7
b00000000000000000000000000000000 6
b00000000000000000000000000000000 5
b00000000000000000000000000000000 4
b00000000000000000000000000000000 3
b00000000000000000000000000000000 2
b00000000000000000000000000000000 1
b00000000000000000000000000000000 0
b000000 /
b000000 .
0-
0,
b00000000000000000000000000000000 +
1*
1)
b00000000000000000000000000000000 (
0'
b000 &
b00 %
b00000000 $
0#
1"
1!
$end
#1000
0!
#2000
1!
#3000
0!
0"
#4000
1!
#5000
0!
#6000
1!
1"
#7000
0!
#8000
1!
1#
b10 %
b010 &
1'
b11111111111111111111111111111111 t
1v
1w
b011 y
b1111 z
#9000
0!
#10000
1!
0w
0'
1-
b11111111111111111111111111111111 p
1s
b1111 {
#11000
0!
#12000
1!
0s
0-
0v
b00 %
#13000
0!
#14000
1!
b10 %
1v
1'
1w
b00000100 $
b000001 .
#15000
0!
#16000
1!
b000000 .
b00000000 $
0w
0'
0v
b00 %
1-
b00000000000000000000000000000001 (
b000001 /
#17000
0!
#18000
1!
0-
b10 %
1v
1s
b00000000000000000000000000000001 1
#19000
0!
#20000
1!
b00000100 $
b000001 .
b00000000000000000000000000000001 u
#21000
0!
#22000
1!
b00000000000000000000000000000000 u
b000000 .
b00000000 $
0s
0v
b00 %
b00000000000000000000000000000001 +
#23000
0!
#24000
1!
b10 %
1v
b00001000 $
b000010 .
1'
1w
#25000
0!
#26000
1!
0w
0'
b000000 .
b00000000 $
1s
1-
b000010 /
b00000000000000000000000000000010 (
#27000
0!
#28000
1!
0-
0s
0v
b00 %
b00000000000000000000000000000000 +
b00000000000000000000000000000010 2
#29000
0!
#30000
1!
#31000
0!
#32000
1!
b10 %
1v
1s
b00000100 $
b000001 .
b00000000000000000000000000000001 u
#33000
0!
#34000
1!
b00000000000000000000000000000000 u
b000000 .
b00000000 $
0s
0v
b00 %
b00000000000000000000000000000001 +
#35000
0!
#36000
1!
#37000
0!
#38000
1!
b10 %
1v
1s
b00001000 $
b000010 .
b00000000000000000000000000000010 u
#39000
0!
#40000
1!
b00000000000000000000000000000000 u
b000000 .
b00000000 $
0s
0v
b00 %
b00000000000000000000000000000010 +
#41000
0!
#42000
1!
b10 %
1v
b00001100 $
b000011 .
1'
1w
#43000
0!
#44000
1!
0w
0'
b000000 .
b00000000 $
1s
1-
b00000000000000000000000000000011 (
b000011 /
#45000
0!
#46000
1!
0-
0s
0v
b00 %
b00000000000000000000000000000000 +
b00000000000000000000000000000011 3
#47000
0!
#48000
1!
b10 %
1v
1s
b00000100 $
b000001 .
b00000000000000000000000000000001 u
#49000
0!
#50000
1!
b00000000000000000000000000000000 u
b000000 .
b00000000 $
0s
0v
b00 %
b00000000000000000000000000000001 +
#51000
0!
#52000
1!
b10 %
1v
1s
b00001000 $
b000010 .
b00000000000000000000000000000010 u
#53000
0!
#54000
1!
b00000000000000000000000000000000 u
b000000 .
b00000000 $
0s
0v
b00 %
b00000000000000000000000000000010 +
#55000
0!
#56000
1!
b10 %
1v
1s
b00001100 $
b000011 .
b00000000000000000000000000000011 u
#57000
0!
#58000
1!
b00000000000000000000000000000000 u
b000000 .
b00000000 $
0s
0v
b00 %
b00000000000000000000000000000011 +
#59000
0!
#60000
1!
b10 %
1v
b00010000 $
b000100 .
1'
1w
#61000
0!
#62000
1!
0w
0'
b000000 .
b00000000 $
1s
1-
b000100 /
b00000000000000000000000000000100 (
#63000
0!
#64000
1!
0-
0s
0v
b00 %
b00000000000000000000000000000000 +
b00000000000000000000000000000100 4
#65000
0!
#66000
1!
#67000
0!
#68000
1!
b10 %
1v
1s
b00000100 $
b000001 .
b00000000000000000000000000000001 u
#69000
0!
#70000
1!
b00000000000000000000000000000000 u
b000000 .
b00000000 $
0s
0v
b00 %
b00000000000000000000000000000001 +
#71000
0!
#72000
1!
b10 %
1v
1s
b00001000 $
b000010 .
b00000000000000000000000000000010 u
#73000
0!
#74000
1!
b00000000000000000000000000000011 u
b000011 .
b00001100 $
b00000000000000000000000000000010 +
#75000
0!
#76000
1!
b00000000000000000000000000000011 +
b00010000 $
b000100 .
b00000000000000000000000000000100 u
#77000
0!
#78000
1!
b00000000000000000000000000000000 u
b000101 .
b00010100 $
b00000000000000000000000000000100 +
0s
1'
1w
#79000
0!
#80000
1!
0w
0'
b00000000 $
b000000 .
0v
b00 %
1-
b00000000000000000000000000000101 (
b000101 /
#81000
0!
#82000
1!
0-
b10 %
1v
1s
b00000000000000000000000000000101 5
#83000
0!
#84000
1!
0s
0v
b00 %
b00000000000000000000000000000000 +
#85000
0!
#86000
1!
#87000
0!
#88000
1!
b10 %
1v
1s
b000001 .
b00000100 $
b00000000000000000000000000000001 u
#89000
0!
#90000
1!
b00000000000000000000000000000000 u
b00000000 $
b000000 .
0s
0v
b00 %
b00000000000000000000000000000001 +
#91000
0!
#92000
1!
#93000
0!
#94000
1!
b10 %
1v
1s
b000010 .
b00001000 $
b00000000000000000000000000000010 u
#95000
0!
#96000
1!
b00000000000000000000000000000000 u
b00000000 $
b000000 .
0s
0v
b00 %
b00000000000000000000000000000010 +
#97000
0!
#98000
1!
#99000
0!
#100000
1!
b10 %
1v
1s
b000011 .
b00001100 $
b00000000000000000000000000000011 u
#101000
0!
#102000
1!
b00000000000000000000000000000000 u
b00000000 $
b000000 .
0s
0v
b00 %
b00000000000000000000000000000011 +
#103000
0!
#104000
1!
b10 %
1v
1s
b000100 .
b00010000 $
b00000000000000000000000000000100 u
#105000
0!
#106000
1!
b00000000000000000000000000000000 u
b00000000 $
b000000 .
0s
0v
b00 %
b00000000000000000000000000000100 +
#107000
0!
#108000
1!
b10 %
1v
1s
b000101 .
b00010100 $
b00000000000000000000000000000101 u
#109000
0!
#110000
1!
b00000000000000000000000000000000 u
b00011000 $
b000110 .
0s
b00000000000000000000000000000101 +
1'
1w
#111000
0!
#112000
1!
0w
0'
1s
b000000 .
b00000000 $
1-
b000110 /
b00000000000000000000000000000110 (
#113000
0!
#114000
1!
0-
0s
b00000000000000000000000000000000 +
0v
b00 %
b00000000000000000000000000000110 6
#115000
0!
#116000
1!
#117000
0!
#118000
1!
b10 %
1v
1s
b00000100 $
b000001 .
b00000000000000000000000000000001 u
#119000
0!
#120000
1!
b00000000000000000000000000000000 u
b000000 .
b00000000 $
0s
0v
b00 %
b00000000000000000000000000000001 +
#121000
0!
#122000
1!
b10 %
1v
1s
b00001000 $
b000010 .
b00000000000000000000000000000010 u
#123000
0!
#124000
1!
b00000000000000000000000000000000 u
b000000 .
b00000000 $
0s
0v
b00 %
b00000000000000000000000000000010 +
#125000
0!
#126000
1!
b10 %
1v
1s
b00001100 $
b000011 .
b00000000000000000000000000000011 u
#127000
0!
#128000
1!
b00000000000000000000000000000000 u
b000000 .
b00000000 $
0s
0v
b00 %
b00000000000000000000000000000011 +
#129000
0!
#130000
1!
#131000
0!
#132000
1!
b10 %
1v
1s
b00010000 $
b000100 .
b00000000000000000000000000000100 u
#133000
0!
#134000
1!
b00000000000000000000000000000000 u
b000000 .
b00000000 $
0s
0v
b00 %
b00000000000000000000000000000100 +
#135000
0!
#136000
1!
#137000
0!
#138000
1!
b10 %
1v
1s
b00010100 $
b000101 .
b00000000000000000000000000000101 u
#139000
0!
#140000
1!
b00000000000000000000000000000000 u
b000000 .
b00000000 $
0s
0v
b00 %
b00000000000000000000000000000101 +
#141000
0!
#142000
1!
b10 %
1v
1s
b00011000 $
b000110 .
b00000000000000000000000000000110 u
#143000
0!
#144000
1!
b00000000000000000000000000000000 u
b000111 .
b00011100 $
0s
b00000000000000000000000000000110 +
1'
1w
#145000
0!
#146000
1!
0w
0'
b00000000 $
b000000 .
0v
b00 %
1-
b00000000000000000000000000000111 (
b000111 /
#147000
0!
#148000
1!
0-
b10 %
1v
1s
b00000000000000000000000000000111 7
#149000
0!
#150000
1!
0s
0v
b00 %
b00000000000000000000000000000000 +
#151000
0!
#152000
1!
b10 %
1v
1s
b000001 .
b00000100 $
b00000000000000000000000000000001 u
#153000
0!
#154000
1!
b00000000000000000000000000000000 u
b00000000 $
b000000 .
0s
0v
b00 %
b00000000000000000000000000000001 +
#155000
0!
#156000
1!
b10 %
1v
1s
b000010 .
b00001000 $
b00000000000000000000000000000010 u
#157000
0!
#158000
1!
b00000000000000000000000000000000 u
b00000000 $
b000000 .
0s
0v
b00 %
b00000000000000000000000000000010 +
#159000
0!
#160000
1!
b10 %
1v
1s
b000011 .
b00001100 $
b00000000000000000000000000000011 u
#161000
0!
#162000
1!
b00000000000000000000000000000000 u
b00000000 $
b000000 .
0s
0v
b00 %
b00000000000000000000000000000011 +
#163000
0!
#164000
1!
b10 %
1v
1s
b000100 .
b00010000 $
b00000000000000000000000000000100 u
#165000
0!
#166000
1!
b00000000000000000000000000000000 u
b00000000 $
b000000 .
0s
0v
b00 %
b00000000000000000000000000000100 +
#167000
0!
#168000
1!
b10 %
1v
1s
b000101 .
b00010100 $
b00000000000000000000000000000101 u
#169000
0!
#170000
1!
b00000000000000000000000000000000 u
b00000000 $
b000000 .
0s
0v
b00 %
b00000000000000000000000000000101 +
#171000
0!
#172000
1!
#173000
0!
#174000
1!
b10 %
1v
1s
b000110 .
b00011000 $
b00000000000000000000000000000110 u
#175000
0!
#176000
1!
b00000000000000000000000000000111 u
b00011100 $
b000111 .
b00000000000000000000000000000110 +
#177000
0!
#178000
1!
b00000000000000000000000000000111 +
b001000 .
b00100000 $
b00000000000000000000000000000000 u
0s
1'
1w
#179000
0!
#180000
1!
0w
0'
b00000000 $
b000000 .
0v
b00 %
1-
b001000 /
b00000000000000000000000000001000 (
#181000
0!
#182000
1!
0-
b10 %
1v
1s
b00000000000000000000000000001000 8
#183000
0!
#184000
1!
b000001 .
b00000100 $
b00000000000000000000000000000001 u
b00000000000000000000000000000000 +
#185000
0!
#186000
1!
b00000000000000000000000000000001 +
b00000000000000000000000000000000 u
b00000000 $
b000000 .
0s
0v
b00 %
#187000
0!
#188000
1!
b10 %
1v
1s
b000010 .
b00001000 $
b00000000000000000000000000000010 u
#189000
0!
#190000
1!
b00000000000000000000000000000000 u
b00000000 $
b000000 .
0s
0v
b00 %
b00000000000000000000000000000010 +
#191000
0!
#192000
1!
b10 %
1v
1s
b000011 .
b00001100 $
b00000000000000000000000000000011 u
#193000
0!
#194000
1!
b00000000000000000000000000000100 u
b00010000 $
b000100 .
b00000000000000000000000000000011 +
#195000
0!
#196000
1!
b00000000000000000000000000000100 +
b000000 .
b00000000 $
b00000000000000000000000000000000 u
0s
0v
b00 %
#197000
0!
#198000
1!
#199000
0!
#200000
1!
b10 %
1v
1s
b00000000000000000000000000000101 u
b00010100 $
b000101 .
#201000
0!
#202000
1!
b000000 .
b00000000 $
b00000000000000000000000000000000 u
0s
0v
b00 %
b00000000000000000000000000000101 +
#203000
0!
#204000
1!
#205000
0!
#206000
1!
b10 %
1v
1s
b00000000000000000000000000000110 u
b00011000 $
b000110 .
#207000
0!
#208000
1!
b000000 .
b00000000 $
b00000000000000000000000000000000 u
0s
0v
b00 %
b00000000000000000000000000000110 +
#209000
0!
#210000
1!
#211000
0!
#212000
1!
b10 %
1v
1s
b00000000000000000000000000000111 u
b00011100 $
b000111 .
#213000
0!
#214000
1!
b000000 .
b00000000 $
b00000000000000000000000000000000 u
0s
0v
b00 %
b00000000000000000000000000000111 +
#215000
0!
#216000
1!
b10 %
1v
1s
b00000000000000000000000000001000 u
b00100000 $
b001000 .
#217000
0!
#218000
1!
b001001 .
b00100100 $
b00000000000000000000000000000000 u
0s
b00000000000000000000000000001000 +
1'
1w
#219000
0!
#220000
1!
0w
0'
1s
b00000000 $
b000000 .
1-
b00000000000000000000000000001001 (
b001001 /
#221000
0!
#222000
1!
0-
0s
b00000000000000000000000000000000 +
0v
b00 %
b00000000000000000000000000001001 9
#223000
0!
#224000
1!
b10 %
1v
1s
b000001 .
b00000100 $
b00000000000000000000000000000001 u
#225000
0!
#226000
1!
b00000000000000000000000000000000 u
b00000000 $
b000000 .
0s
0v
b00 %
b00000000000000000000000000000001 +
#227000
0!
#228000
1!
b10 %
1v
1s
b000010 .
b00001000 $
b00000000000000000000000000000010 u
#229000
0!
#230000
1!
b00000000000000000000000000000000 u
b00000000 $
b000000 .
0s
0v
b00 %
b00000000000000000000000000000010 +
#231000
0!
#232000
1!
b10 %
1v
1s
b000011 .
b00001100 $
b00000000000000000000000000000011 u
#233000
0!
#234000
1!
b00000000000000000000000000000000 u
b00000000 $
b000000 .
0s
0v
b00 %
b00000000000000000000000000000011 +
#235000
0!
#236000
1!
#237000
0!
#238000
1!
b10 %
1v
1s
b000100 .
b00010000 $
b00000000000000000000000000000100 u
#239000
0!
#240000
1!
b00000000000000000000000000000101 u
b00010100 $
b000101 .
b00000000000000000000000000000100 +
#241000
0!
#242000
1!
b00000000000000000000000000000101 +
b000000 .
b00000000 $
b00000000000000000000000000000000 u
0s
0v
b00 %
#243000
0!
#244000
1!
b10 %
1v
1s
b00000000000000000000000000000110 u
b00011000 $
b000110 .
#245000
0!
#246000
1!
b000000 .
b00000000 $
b00000000000000000000000000000000 u
0s
0v
b00 %
b00000000000000000000000000000110 +
#247000
0!
#248000
1!
b10 %
1v
1s
b00000000000000000000000000000111 u
b00011100 $
b000111 .
#249000
0!
#250000
1!
b000000 .
b00000000 $
b00000000000000000000000000000000 u
0s
0v
b00 %
b00000000000000000000000000000111 +
#251000
0!
#252000
1!
b10 %
1v
1s
b00000000000000000000000000001000 u
b00100000 $
b001000 .
#253000
0!
#254000
1!
b000000 .
b00000000 $
b00000000000000000000000000000000 u
0s
0v
b00 %
b00000000000000000000000000001000 +
#255000
0!
#256000
1!
b10 %
1v
1s
b00000000000000000000000000001001 u
b00100100 $
b001001 .
#257000
0!
#258000
1!
0s
0v
b00000000000000000000000000001001 +
0#
#259000
0!
#260000
1!
#261000
0!
#262000
1!
1#
1v
b000000 .
b00000000 $
b00000000000000000000000000000000 u
1'
1w
b0001 z
b000 y
b00000000000000000000000011111111 t
b000 &
#263000
0!
#264000
1!
b00000000000000001111111100000000 t
b0010 z
b00000001 $
1-
b000000 /
b00000000000000000000000000000000 (
b0001 {
b00000000000000000000000011111111 p
b01 x
#265000
0!
#266000
1!
b00 x
b00000000000000001111111100000000 p
b0010 {
b00000000000000000000000100000000 (
b00000000 $
b1111 z
b11111111111111111111111111111111 t
b010 &
b011 y
0w
0'
0v
b00 %
#267000
0!
#268000
1!
b10 %
1v
1'
1w
b000 y
b000 &
b00000000111111110000000000000000 t
b0100 z
b00000010 $
b10 x
0-
b00000000000000000000000100000000 u
b00000000000000000000000100000000 0
#269000
0!
#270000
1!
1-
b11 x
b00000011 $
b1000 z
b11111111000000000000000000000000 t
b00000000000000100000000000000000 (
b0100 {
b00000000111111110000000000000000 p
#271000
0!
#272000
1!
b11111111000000000000000000000000 p
b1000 {
b00000011000000000000000000000000 (
b00000000000000001111111111111111 t
b0011 z
b00000100 $
b00 x
b00000000000000100000000100000000 0
b00000000000000000000000000000001 u
b001 &
b001 y
b000001 .
#273000
0!
#274000
1!
b000000 .
b011 y
b010 &
b00000011000000100000000100000000 u
b00000011000000100000000100000000 0
b00000000 $
b1111 z
b11111111111111111111111111111111 t
b00000000000000000000000000000000 (
b0011 {
b00000000000000001111111111111111 p
0w
0'
0v
b00 %
b000001 /
#275000
0!
#276000
1!
b10 %
1v
1'
1w
b11111111111111110000000000000000 t
b1100 z
b00000110 $
b00000000000000000000000000000000 u
b001 &
b001 y
b000001 .
b10 x
0-
b00000000000000000000000000000000 1
#277000
0!
#278000
1!
1-
b00 x
b000000 .
b011 y
b010 &
b00000011000000100000000100000000 u
b00000000 $
b1111 z
b11111111111111111111111111111111 t
0w
0'
0v
b00 %
b11111111111111110000000000000000 p
b1100 {
b00000000000000010000000000000000 (
#279000
0!
#280000
1!
b10 %
1v
1'
1w
b00001000 $
b00000000000000000000000000000010 u
b000010 .
0-
b00000000000000010000000000000000 1
#281000
0!
#282000
1!
1-
b000011 .
b00000000000000000000000000000011 u
b00001100 $
b00000000000000000000000000000000 (
b1111 {
b11111111111111111111111111111111 p
b00000000000000000000000011111111 t
b0001 z
b000 &
b000 y
b000010 /
#283000
0!
#284000
1!
b000011 /
b011 y
b010 &
b1111 z
b11111111111111111111111111111111 t
b00000000000000000000000011111111 p
b0001 {
b00000000000000000000000000000001 (
b00000000 $
b00000011000000100000000100000000 u
b000000 .
0w
0'
0v
b00 %
b00000000000000000000000000000000 2
#285000
0!
#286000
1!
b10 %
1v
1'
1w
b000011 .
b00000000000000000000000000000001 u
b00001101 $
b00000000000000001111111100000000 t
b0010 z
b000 &
b000 y
0-
b01 x
b00000000000000000000000000000001 3
#287000
0!
#288000
1!
b00 x
1-
b011 y
b010 &
b1111 z
b11111111111111111111111111111111 t
b00000000 $
b00000011000000100000000100000000 u
b000000 .
0w
0'
0v
b00 %
b00000000000000000000001000000000 (
b0010 {
b00000000000000001111111100000000 p
#289000
0!
#290000
1!
b10 %
1v
1'
1w
b000011 .
b00000000000000000000001000000001 u
b00001110 $
b00000000111111110000000000000000 t
b0100 z
b000 &
b000 y
0-
b10 x
b00000000000000000000001000000001 3
#291000
0!
#292000
1!
b00 x
1-
b011 y
b010 &
b1111 z
b11111111111111111111111111111111 t
b00000000 $
b00000011000000100000000100000000 u
b000000 .
0w
0'
0v
b00 %
b00000000111111110000000000000000 p
b0100 {
b00000000000000110000000000000000 (
#293000
0!
#294000
1!
b10 %
1v
1'
1w
b000011 .
b00000000000000110000001000000001 u
b00001111 $
b11111111000000000000000000000000 t
b1000 z
b000 &
b000 y
0-
b11 x
b00000000000000110000001000000001 3
#295000
0!
#296000
1!
b00 x
1-
b011 y
b010 &
b1111 z
b11111111111111111111111111111111 t
b00000000 $
b00000011000000100000000100000000 u
b000000 .
0w
0'
0v
b00 %
b00000100000000000000000000000000 (
b1000 {
b11111111000000000000000000000000 p
#297000
0!
#298000
1!
b10 %
1v
1'
1w
b000100 .
b00000000000000000000000000000100 u
b00010000 $
b00000000000000001111111111111111 t
b0011 z
b001 &
b001 y
0-
b00000100000000110000001000000001 3
#299000
0!
#300000
1!
1-
b011 y
b010 &
b1111 z
b11111111111111111111111111111111 t
b00000000 $
b00000011000000100000000100000000 u
b000000 .
0w
0'
0v
b00 %
b00000000000000001111111111111111 p
b0011 {
b00000000000000000000000000000001 (
b000100 /
#301000
0!
#302000
1!
b10 %
1v
1'
1w
b000100 .
b00000000000000000000000000000001 u
b00010010 $
b11111111111111110000000000000000 t
b1100 z
b001 &
b001 y
0-
b10 x
b00000000000000000000000000000001 4
#303000
0!
#304000
1!
b00 x
1-
b011 y
b010 &
b1111 z
b11111111111111111111111111111111 t
b00000000 $
b00000011000000100000000100000000 u
b000000 .
0w
0'
0v
b00 %
b00000000000000100000000000000000 (
b1100 {
b11111111111111110000000000000000 p
#305000
0!
#306000
1!
b10 %
1v
1'
1w
b000101 .
b00000000000000000000000000000101 u
b00010100 $
0-
b00000000000000100000000000000001 4
#307000
0!
#308000
1!
1-
b00011000 $
b00000000000000000000000000000110 u
b000110 .
b11111111111111111111111111111111 p
b1111 {
b00000000000000000000000000000001 (
b00000000000000000000000011111111 t
b0001 z
b000 &
b000 y
b000101 /
#309000
0!
#310000
1!
b000110 /
b0010 z
b00000000000000001111111100000000 t
b00000000000000000000000000000010 (
b0001 {
b00000000000000000000000011111111 p
b00011001 $
b01 x
b00000000000000000000000000000001 5
#311000
0!
#312000
1!
b10 x
b00011010 $
b00000000000000001111111100000000 p
b0010 {
b00000000000000000000001100000000 (
b00000000111111110000000000000000 t
b0100 z
b00000000000000000000000000000010 u
b00000000000000000000000000000010 6
#313000
0!
#314000
1!
b00000000000000000000001100000010 6
b00000000000000000000001100000010 u
b1000 z
b11111111000000000000000000000000 t
b00000000000001000000000000000000 (
b0100 {
b00000000111111110000000000000000 p
b00011011 $
b11 x
#315000
0!
#316000
1!
b00 x
b00011100 $
b11111111000000000000000000000000 p
b1000 {
b00000101000000000000000000000000 (
b00000000000000001111111111111111 t
b0011 z
b00000000000000000000000000000111 u
b00000000000001000000001100000010 6
b001 y
b001 &
b000111 .
#317000
0!
#318000
1!
b00000101000001000000001100000010 6
b1100 z
b11111111111111110000000000000000 t
b00000000000000000000000000000010 (
b0011 {
b00000000000000001111111111111111 p
b00011110 $
b10 x
b000111 /
#319000
0!
#320000
1!
b00 x
b00000000 $
b11111111111111110000000000000000 p
b1100 {
b00000000000000110000000000000000 (
b11111111111111111111111111111111 t
b1111 z
b000000 .
b010 &
b011 y
b00000011000000100000000100000000 u
0w
0'
0v
b00 %
b00000000000000000000000000000010 7
#321000
0!
#322000
1!
b00000000000000110000000000000010 7
b10 %
1v
1'
1w
b00000000000000000000000000001000 u
b001000 .
b00100000 $
0-
#323000
0!
#324000
1!
1-
b00000000 $
b000000 .
b00000011000000100000000100000000 u
0w
0'
0v
b00 %
b00000000000000000000000000000010 (
b1111 {
b11111111111111111111111111111111 p
b001000 /
#325000
0!
#326000
1!
b10 %
1v
1'
1w
b00000000000000000000000000001001 u
b001001 .
b00100100 $
0-
b000 y
b000 &
b0001 z
b00000000000000000000000011111111 t
b00000000000000000000000000000010 8
#327000
0!
#328000
1!
b11111111111111111111111111111111 t
b1111 z
b010 &
b011 y
1-
b00000000 $
b000000 .
b00000011000000100000000100000000 u
0w
0'
0v
b00 %
b001001 /
b00000000000000000000000011111111 p
b0001 {
b00000000000000000000000000000011 (
#329000
0!
#330000
1!
b10 %
1v
1'
1w
b00000000000000000000000000000011 u
b001001 .
b00100101 $
0-
b000 y
b000 &
b0010 z
b00000000000000001111111100000000 t
b01 x
b00000000000000000000000000000011 9
#331000
0!
#332000
1!
b00 x
b11111111111111111111111111111111 t
b1111 z
b010 &
b011 y
1-
b00000000 $
b000000 .
b00000011000000100000000100000000 u
0w
0'
0v
b00 %
b00000000000000000000010000000000 (
b0010 {
b00000000000000001111111100000000 p
#333000
0!
#334000
1!
b10 %
1v
1'
1w
b00000000000000000000010000000011 u
b001001 .
b00100110 $
0-
b000 y
b000 &
b0100 z
b00000000111111110000000000000000 t
b10 x
b00000000000000000000010000000011 9
#335000
0!
#336000
1!
b00 x
b11111111111111111111111111111111 t
b1111 z
b010 &
b011 y
1-
b00000000 $
b000000 .
b00000011000000100000000100000000 u
0w
0'
0v
b00 %
b00000000111111110000000000000000 p
b0100 {
b00000000000001010000000000000000 (
#337000
0!
#338000
1!
b10 %
1v
1'
1w
b00000000000001010000010000000011 u
b001001 .
b00100111 $
0-
b000 y
b000 &
b1000 z
b11111111000000000000000000000000 t
b11 x
b00000000000001010000010000000011 9
#339000
0!
#340000
1!
b00 x
b11111111111111111111111111111111 t
b1111 z
b010 &
b011 y
1-
b00000000 $
b000000 .
b00000011000000100000000100000000 u
0w
0'
0v
b00 %
b00000110000000000000000000000000 (
b1000 {
b11111111000000000000000000000000 p
#341000
0!
#342000
1!
b10 %
1v
1'
1w
b00000000000000000000000000000000 u
b001010 .
b00101000 $
0-
b001 y
b001 &
b0011 z
b00000000000000001111111111111111 t
b00000110000001010000010000000011 9
#343000
0!
#344000
1!
b11111111111111111111111111111111 t
b1111 z
b010 &
b011 y
1-
b00000000 $
b000000 .
b00000011000000100000000100000000 u
0w
0'
0v
b00 %
b00000000000000001111111111111111 p
b0011 {
b00000000000000000000000000000011 (
b001010 /
#345000
0!
